%YAML 1.1
%TAG !u! tag:unity3d.com,2011:
--- !u!221 &22100000
AnimatorOverrideController:
  m_ObjectHideFlags: 0
  m_PrefabParentObject: {fileID: 0}
  m_PrefabInternal: {fileID: 0}
  m_Name: Enemy-Strong
  m_Controller: {fileID: 9100000, guid: 688f906cb2f5d5d41b3be41941cd75b3, type: 2}
  m_Clips:
  - m_OriginalClip: {fileID: 7400000, guid: 09adc16a6f02b234791f19da2bae85bc, type: 2}
    m_OverrideClip: {fileID: 7400000, guid: 404acc00b119d8a449171ae9fbbd8a9f, type: 2}
  - m_OriginalClip: {fileID: 7400000, guid: 910cb8da5e64b864fa86d1a5499b8ada, type: 2}
    m_OverrideClip: {fileID: 7400000, guid: 3590f1a9f99aaa04e9ef982b0ebfc116, type: 2}
